\relax 
\babel@aux{italian}{}
\babel@aux{italian}{}
\@writefile{toc}{\contentsline {chapter}{Introduzione}{2}\protected@file@percent }
\@writefile{toc}{\contentsline {chapter}{Tecnologie}{4}\protected@file@percent }
\@writefile{toc}{\contentsline {chapter}{Attivit\IeC {\`a}}{5}\protected@file@percent }
\@writefile{lof}{\contentsline {figure}{\numberline {1}{\ignorespaces Struttura corrente del database}}{6}\protected@file@percent }
\newlabel{DBJsarmute}{{1}{6}}
\newlabel{DBJsarmute@cref}{{[figure][1][0]1}{[1][5][]6}}
\@writefile{lof}{\contentsline {figure}{\numberline {2}{\ignorespaces Diagramma di sequenza per la creazione di una cartella}}{7}\protected@file@percent }
\newlabel{SequenceDiagramFolderCreate}{{2}{7}}
\newlabel{SequenceDiagramFolderCreate@cref}{{[figure][2][0]2}{[1][6][]7}}
\@writefile{toc}{\contentsline {chapter}{Conclusioni}{9}\protected@file@percent }
