\babel@toc {italian}{}
\babel@toc {italian}{}
\contentsline {chapter}{Introduzione}{2}% 
\contentsline {chapter}{Tecnologie}{4}% 
\contentsline {chapter}{Attivit\IeC {\`a}}{5}% 
\contentsline {chapter}{Conclusioni}{9}% 
