\relax 
\select@language{italian}
\@writefile{toc}{\select@language{italian}}
\@writefile{lof}{\select@language{italian}}
\@writefile{lot}{\select@language{italian}}
\select@language{italian}
\@writefile{toc}{\select@language{italian}}
\@writefile{lof}{\select@language{italian}}
\@writefile{lot}{\select@language{italian}}
\@writefile{toc}{\contentsline {chapter}{\numberline {1}Introduzione}{9}}
\@writefile{lof}{\addvspace {10\p@ }}
\@writefile{lot}{\addvspace {10\p@ }}
\@writefile{lof}{\contentsline {figure}{\numberline {1.1}{\ignorespaces ATLAS, CERN (Ginevra, Svizzera): il rilevatore ATLAS (A Thoroidal LHC ApparatuS) in uso da LHC in fase di assemblaggio}}{10}}
\newlabel{atlas}{{1.1}{10}}
\newlabel{atlas@cref}{{[figure][1][1]1.1}{10}}
\@writefile{lof}{\contentsline {figure}{\numberline {1.2}{\ignorespaces CMS, CERN (Ginevra, Svizzera): il rilevatore CMS (Compact Muon Solenoid) in uso da LHC in fase di costruzione}}{10}}
\newlabel{cms}{{1.2}{10}}
\newlabel{cms@cref}{{[figure][2][1]1.2}{10}}
\@writefile{toc}{\contentsline {section}{\numberline {1.1}Timespot e Arcadia}{11}}
\@writefile{toc}{\contentsline {section}{\numberline {1.2}Scopo del progetto}{12}}
\@writefile{toc}{\contentsline {chapter}{\numberline {2}Teoria preliminare}{13}}
\@writefile{lof}{\addvspace {10\p@ }}
\@writefile{lot}{\addvspace {10\p@ }}
\@writefile{toc}{\contentsline {section}{\numberline {2.1}Sensore a pixel}{13}}
\@writefile{lof}{\contentsline {figure}{\numberline {2.1}{\ignorespaces Bozza elementare di circuito del sensore a pixel}}{14}}
\newlabel{sensore}{{2.1}{14}}
\newlabel{sensore@cref}{{[figure][1][2]2.1}{14}}
\@writefile{lof}{\contentsline {figure}{\numberline {2.2}{\ignorespaces Passaggio della carica ionizzante, che viene intercettata dalla giunzione}}{14}}
\newlabel{carica}{{2.2}{14}}
\newlabel{carica@cref}{{[figure][2][2]2.2}{14}}
\@writefile{lof}{\contentsline {figure}{\numberline {2.3}{\ignorespaces Struttura del MAPS basato su CMOS}}{15}}
\newlabel{cmos}{{2.3}{15}}
\newlabel{cmos@cref}{{[figure][3][2]2.3}{15}}
\@writefile{lof}{\contentsline {figure}{\numberline {2.4}{\ignorespaces Bozza elementare dei circuiti amplificatori, in base alla configurazione pu\IeC {\`o} essere integratore o derivatore}}{15}}
\newlabel{amplificatore}{{2.4}{15}}
\newlabel{amplificatore@cref}{{[figure][4][2]2.4}{15}}
\@writefile{toc}{\contentsline {section}{\numberline {2.2}DMA}{16}}
\@writefile{lof}{\contentsline {figure}{\numberline {2.5}{\ignorespaces Funzionamento del DMA mediante DMAC}}{17}}
\newlabel{dma}{{2.5}{17}}
\newlabel{dma@cref}{{[figure][5][2]2.5}{17}}
\@writefile{toc}{\contentsline {section}{\numberline {2.3}Struttura base di un sistema Embedded Linux}{18}}
\@writefile{lof}{\contentsline {figure}{\numberline {2.6}{\ignorespaces Architettura di un sistema Linux Embedded}}{19}}
\newlabel{linuxembedded}{{2.6}{19}}
\newlabel{linuxembedded@cref}{{[figure][6][2]2.6}{19}}
\@writefile{toc}{\contentsline {section}{\numberline {2.4}Il protocollo AXI}{19}}
\@writefile{lof}{\contentsline {figure}{\numberline {2.7}{\ignorespaces Moduli pi\IeC {\`u} diffusi nei SoC moderni}}{20}}
\newlabel{socmodules}{{2.7}{20}}
\newlabel{socmodules@cref}{{[figure][7][2]2.7}{20}}
\@writefile{lof}{\contentsline {figure}{\numberline {2.8}{\ignorespaces I moduli che comunicano sullo stesso bus devono seguire lo stesso standard di comunicazione}}{21}}
\newlabel{busmodules}{{2.8}{21}}
\newlabel{busmodules@cref}{{[figure][8][2]2.8}{21}}
\@writefile{lof}{\contentsline {figure}{\numberline {2.9}{\ignorespaces Flow dei dati tra un modulo AXI Master e AXI Slave a seconda del tipo di operazione}}{22}}
\newlabel{axitransaction}{{2.9}{22}}
\newlabel{axitransaction@cref}{{[figure][9][2]2.9}{22}}
\@writefile{lof}{\contentsline {figure}{\numberline {2.10}{\ignorespaces Comunicazione tra AXI Master e AXI Slave durante una transaction}}{22}}
\newlabel{axitransaction2}{{2.10}{22}}
\newlabel{axitransaction2@cref}{{[figure][10][2]2.10}{22}}
\@writefile{lof}{\contentsline {figure}{\numberline {2.11}{\ignorespaces La comunicazione avviene attraverso diversi canali, ognuno con dei segnali specifici}}{23}}
\newlabel{axitransaction3}{{2.11}{23}}
\newlabel{axitransaction3@cref}{{[figure][11][2]2.11}{23}}
\@writefile{lof}{\contentsline {figure}{\numberline {2.12}{\ignorespaces Comunicazione mediante AXI Interconnect}}{24}}
\newlabel{axiinterconnect}{{2.12}{24}}
\newlabel{axiinterconnect@cref}{{[figure][12][2]2.12}{24}}
\@writefile{toc}{\contentsline {chapter}{\numberline {3}FPGA: ZYBO Zynq-7000 Development Board}{25}}
\@writefile{lof}{\addvspace {10\p@ }}
\@writefile{lot}{\addvspace {10\p@ }}
\@writefile{lof}{\contentsline {figure}{\numberline {3.1}{\ignorespaces Panoramica architettura Zynq-7000}}{26}}
\newlabel{architetturazynq}{{3.1}{26}}
\newlabel{architetturazynq@cref}{{[figure][1][3]3.1}{26}}
\@writefile{toc}{\contentsline {section}{\numberline {3.1}Il sistema Zynq e il supporto AXI4}{27}}
\@writefile{lof}{\contentsline {figure}{\numberline {3.2}{\ignorespaces Struttura dell'AXI DMA}}{28}}
\newlabel{axidmainternal}{{3.2}{28}}
\newlabel{axidmainternal@cref}{{[figure][2][3]3.2}{28}}
\@writefile{lof}{\contentsline {figure}{\numberline {3.3}{\ignorespaces AXI DMA: lo stream output \IeC {\`e} in loop con lo stream input}}{29}}
\newlabel{axidmaloopback}{{3.3}{29}}
\newlabel{axidmaloopback@cref}{{[figure][3][3]3.3}{29}}
\@writefile{toc}{\contentsline {section}{\numberline {3.2}Programmazione FPGA}{30}}
\@writefile{toc}{\contentsline {chapter}{\numberline {4}Analisi e Design}{31}}
\@writefile{lof}{\addvspace {10\p@ }}
\@writefile{lot}{\addvspace {10\p@ }}
\@writefile{toc}{\contentsline {section}{\numberline {4.1}Specifiche}{31}}
\@writefile{toc}{\contentsline {section}{\numberline {4.2}Modello e progettazione}{31}}
\@writefile{toc}{\contentsline {subsection}{\numberline {4.2.1}Trasferimento dati}{32}}
\@writefile{lof}{\contentsline {figure}{\numberline {4.1}{\ignorespaces Schema dei componenti coinvolti nel trasferimento dati}}{32}}
\newlabel{designschema}{{4.1}{32}}
\newlabel{designschema@cref}{{[figure][1][4]4.1}{32}}
\@writefile{toc}{\contentsline {subsection}{\numberline {4.2.2}Comunicazione}{32}}
\@writefile{toc}{\contentsline {section}{\numberline {4.3}Strumenti di sviluppo}{33}}
\@writefile{toc}{\contentsline {subsection}{\numberline {4.3.1}Xilinx Vivado}{33}}
\@writefile{toc}{\contentsline {subsection}{\numberline {4.3.2}Petalinux Tools}{33}}
\@writefile{toc}{\contentsline {chapter}{\numberline {5}Sviluppo e implementazione}{35}}
\@writefile{lof}{\addvspace {10\p@ }}
\@writefile{lot}{\addvspace {10\p@ }}
\@writefile{lof}{\contentsline {figure}{\numberline {5.1}{\ignorespaces Workflow, la linea tratteggiata indica la comunicazione tra i due device}}{35}}
\newlabel{workflow}{{5.1}{35}}
\newlabel{workflow@cref}{{[figure][1][5]5.1}{35}}
\@writefile{toc}{\contentsline {section}{\numberline {5.1}Hardware Block Design con Vivado}{36}}
\@writefile{toc}{\contentsline {subsection}{\numberline {5.1.1}Il Process System}{36}}
\@writefile{lof}{\contentsline {figure}{\numberline {5.2}{\ignorespaces Struttura della PS di Zynq 7000, adattata alla Zybo}}{37}}
\newlabel{zynqbd}{{5.2}{37}}
\newlabel{zynqbd@cref}{{[figure][2][5]5.2}{37}}
\@writefile{toc}{\contentsline {subsection}{\numberline {5.1.2}Il DMA}{37}}
\@writefile{lof}{\contentsline {figure}{\numberline {5.3}{\ignorespaces Comunicazione da PS a DMA}}{38}}
\newlabel{psdma}{{5.3}{38}}
\newlabel{psdma@cref}{{[figure][3][5]5.3}{38}}
\@writefile{lof}{\contentsline {figure}{\numberline {5.4}{\ignorespaces Comunicazione da DMA a PS}}{38}}
\newlabel{dmaps}{{5.4}{38}}
\newlabel{dmaps@cref}{{[figure][4][5]5.4}{38}}
\@writefile{lof}{\contentsline {figure}{\numberline {5.5}{\ignorespaces Configurazione standard di AXI DMA per Zynq}}{39}}
\newlabel{dmaconf}{{5.5}{39}}
\newlabel{dmaconf@cref}{{[figure][5][5]5.5}{39}}
\@writefile{toc}{\contentsline {subsection}{\numberline {5.1.3}Il Loopback}{39}}
\@writefile{lof}{\contentsline {figure}{\numberline {5.6}{\ignorespaces Loopback canali del DMA}}{40}}
\newlabel{dmafifo}{{5.6}{40}}
\newlabel{dmafifo@cref}{{[figure][6][5]5.6}{40}}
\@writefile{toc}{\contentsline {subsection}{\numberline {5.1.4}Il Block design}{40}}
\@writefile{lof}{\contentsline {figure}{\numberline {5.7}{\ignorespaces Block design}}{40}}
\newlabel{blockdesign}{{5.7}{40}}
\newlabel{blockdesign@cref}{{[figure][7][5]5.7}{40}}
\@writefile{lof}{\contentsline {figure}{\numberline {5.8}{\ignorespaces Design implementato}}{42}}
\newlabel{device}{{5.8}{42}}
\newlabel{device@cref}{{[figure][8][5]5.8}{42}}
\@writefile{lof}{\contentsline {figure}{\numberline {5.9}{\ignorespaces Routing implementato}}{43}}
\newlabel{routing}{{5.9}{43}}
\newlabel{routing@cref}{{[figure][9][5]5.9}{43}}
\@writefile{toc}{\contentsline {section}{\numberline {5.2}Applicazione DAQFIFO}{43}}
\@writefile{toc}{\contentsline {subsection}{\numberline {5.2.1}Comunicazione con altri device}{44}}
\@writefile{toc}{\contentsline {subsection}{\numberline {5.2.2}Controllo del DMA}{44}}
\@writefile{toc}{\contentsline {subsection}{\numberline {5.2.3}FIFO}{46}}
\@writefile{toc}{\contentsline {subsection}{\numberline {5.2.4}Modulo per richiesta memoria}{46}}
\@writefile{toc}{\contentsline {section}{\numberline {5.3}Embedded Linux con Petalinux}{46}}
\@writefile{toc}{\contentsline {subsection}{\numberline {5.3.1}Configurazione del sistema}{47}}
\@writefile{toc}{\contentsline {subsection}{\numberline {5.3.2}Generazione dei file di boot}{47}}
\@writefile{toc}{\contentsline {section}{\numberline {5.4}Applicazione per il testing}{47}}
\@writefile{toc}{\contentsline {subsection}{\numberline {5.4.1}Implementazione}{48}}
\@writefile{toc}{\contentsline {chapter}{\numberline {6}Test, valutazione e calibrazione}{49}}
\@writefile{lof}{\addvspace {10\p@ }}
\@writefile{lot}{\addvspace {10\p@ }}
\@writefile{toc}{\contentsline {section}{\numberline {6.1}Casi di test con Zybo}{49}}
\@writefile{toc}{\contentsline {subsection}{\numberline {6.1.1}Caso A}{49}}
\@writefile{lot}{\contentsline {table}{\numberline {6.1}{\ignorespaces Caso A: Numero di pacchetto ricevuto nel buffer di ricezione al dato tempo}}{50}}
\newlabel{A_recv}{{6.1}{50}}
\newlabel{A_recv@cref}{{[table][1][6]6.1}{50}}
\@writefile{lot}{\contentsline {table}{\numberline {6.2}{\ignorespaces Caso A: Numero di pacchetto spostato dal buffer di ricezione alla FIFO al dato tempo}}{50}}
\newlabel{A_DDR}{{6.2}{50}}
\newlabel{A_DDR@cref}{{[table][2][6]6.2}{50}}
\@writefile{lot}{\contentsline {table}{\numberline {6.3}{\ignorespaces Caso A: Numero di pacchetto spostato dalla FIFO al buffer di invio al dato tempo}}{51}}
\newlabel{A_buffer}{{6.3}{51}}
\newlabel{A_buffer@cref}{{[table][3][6]6.3}{51}}
\@writefile{lot}{\contentsline {table}{\numberline {6.4}{\ignorespaces Caso A: Numero di pacchetto spedito dal buffer di invio al dato tempo}}{51}}
\newlabel{A_send}{{6.4}{51}}
\newlabel{A_send@cref}{{[table][4][6]6.4}{51}}
\@writefile{lot}{\contentsline {table}{\numberline {6.5}{\ignorespaces Caso A: Numero di pacchetti presenti nella FIFO al dato tempo}}{52}}
\newlabel{A_FIFO}{{6.5}{52}}
\newlabel{A_FIFO@cref}{{[table][5][6]6.5}{52}}
\@writefile{lot}{\contentsline {table}{\numberline {6.6}{\ignorespaces Caso A: Percentuale di utilizzo della CPU al dato tempo}}{52}}
\newlabel{A_CPU}{{6.6}{52}}
\newlabel{A_CPU@cref}{{[table][6][6]6.6}{52}}
\@writefile{toc}{\contentsline {subsection}{\numberline {6.1.2}Caso B}{53}}
\@writefile{lot}{\contentsline {table}{\numberline {6.7}{\ignorespaces Caso B: Numero di pacchetto ricevuto nel buffer di ricezione al dato tempo}}{53}}
\newlabel{B_recv}{{6.7}{53}}
\newlabel{B_recv@cref}{{[table][7][6]6.7}{53}}
\@writefile{lot}{\contentsline {table}{\numberline {6.8}{\ignorespaces Caso B: Numero di pacchetto spostato dal buffer di ricezione alla FIFO al dato tempo}}{53}}
\newlabel{B_DDR}{{6.8}{53}}
\newlabel{B_DDR@cref}{{[table][8][6]6.8}{53}}
\@writefile{lot}{\contentsline {table}{\numberline {6.9}{\ignorespaces Caso B: Numero di pacchetto spostato dalla FIFO al buffer di invio al dato tempo}}{54}}
\newlabel{B_buffer}{{6.9}{54}}
\newlabel{B_buffer@cref}{{[table][9][6]6.9}{54}}
\@writefile{lot}{\contentsline {table}{\numberline {6.10}{\ignorespaces Caso B: Numero di pacchetto spedito dal buffer di invio al dato tempo}}{54}}
\newlabel{B_send}{{6.10}{54}}
\newlabel{B_send@cref}{{[table][10][6]6.10}{54}}
\@writefile{lot}{\contentsline {table}{\numberline {6.11}{\ignorespaces Caso B: Numero di pacchetti presenti nella FIFO al dato tempo}}{55}}
\newlabel{B_FIFO}{{6.11}{55}}
\newlabel{B_FIFO@cref}{{[table][11][6]6.11}{55}}
\@writefile{lot}{\contentsline {table}{\numberline {6.12}{\ignorespaces Caso B: Percentuale di utilizzo della CPU al dato tempo}}{55}}
\newlabel{B_CPU}{{6.12}{55}}
\newlabel{B_CPU@cref}{{[table][12][6]6.12}{55}}
\@writefile{toc}{\contentsline {section}{\numberline {6.2}Calibrazione del sistema}{56}}
\@writefile{toc}{\contentsline {chapter}{\numberline {7}Conclusioni}{57}}
\@writefile{lof}{\addvspace {10\p@ }}
\@writefile{lot}{\addvspace {10\p@ }}
\@writefile{toc}{\contentsline {section}{\numberline {7.1}Sviluppo futuro}{57}}
\@writefile{toc}{\contentsline {chapter}{Bibliografia}{59}}
