\select@language {italian}
\select@language {italian}
\addvspace {10\p@ }
\contentsline {figure}{\numberline {1.1}{\ignorespaces ATLAS, CERN (Ginevra, Svizzera): il rilevatore ATLAS (A Thoroidal LHC ApparatuS) in uso da LHC in fase di assemblaggio}}{10}
\contentsline {figure}{\numberline {1.2}{\ignorespaces CMS, CERN (Ginevra, Svizzera): il rilevatore CMS (Compact Muon Solenoid) in uso da LHC in fase di costruzione}}{10}
\addvspace {10\p@ }
\contentsline {figure}{\numberline {2.1}{\ignorespaces Bozza elementare di circuito del sensore a pixel}}{14}
\contentsline {figure}{\numberline {2.2}{\ignorespaces Passaggio della carica ionizzante, che viene intercettata dalla giunzione}}{14}
\contentsline {figure}{\numberline {2.3}{\ignorespaces Struttura del MAPS basato su CMOS}}{15}
\contentsline {figure}{\numberline {2.4}{\ignorespaces Bozza elementare dei circuiti amplificatori, in base alla configurazione pu\IeC {\`o} essere integratore o derivatore}}{15}
\contentsline {figure}{\numberline {2.5}{\ignorespaces Funzionamento del DMA mediante DMAC}}{17}
\contentsline {figure}{\numberline {2.6}{\ignorespaces Architettura di un sistema Linux Embedded}}{19}
\contentsline {figure}{\numberline {2.7}{\ignorespaces Moduli pi\IeC {\`u} diffusi nei SoC moderni}}{20}
\contentsline {figure}{\numberline {2.8}{\ignorespaces I moduli che comunicano sullo stesso bus devono seguire lo stesso standard di comunicazione}}{21}
\contentsline {figure}{\numberline {2.9}{\ignorespaces Flow dei dati tra un modulo AXI Master e AXI Slave a seconda del tipo di operazione}}{22}
\contentsline {figure}{\numberline {2.10}{\ignorespaces Comunicazione tra AXI Master e AXI Slave durante una transaction}}{22}
\contentsline {figure}{\numberline {2.11}{\ignorespaces La comunicazione avviene attraverso diversi canali, ognuno con dei segnali specifici}}{23}
\contentsline {figure}{\numberline {2.12}{\ignorespaces Comunicazione mediante AXI Interconnect}}{24}
\addvspace {10\p@ }
\contentsline {figure}{\numberline {3.1}{\ignorespaces Panoramica architettura Zynq-7000}}{26}
\contentsline {figure}{\numberline {3.2}{\ignorespaces Struttura dell'AXI DMA}}{28}
\contentsline {figure}{\numberline {3.3}{\ignorespaces AXI DMA: lo stream output \IeC {\`e} in loop con lo stream input}}{29}
\addvspace {10\p@ }
\contentsline {figure}{\numberline {4.1}{\ignorespaces Schema dei componenti coinvolti nel trasferimento dati}}{32}
\addvspace {10\p@ }
\contentsline {figure}{\numberline {5.1}{\ignorespaces Workflow, la linea tratteggiata indica la comunicazione tra i due device}}{35}
\contentsline {figure}{\numberline {5.2}{\ignorespaces Struttura della PS di Zynq 7000, adattata alla Zybo}}{37}
\contentsline {figure}{\numberline {5.3}{\ignorespaces Comunicazione da PS a DMA}}{38}
\contentsline {figure}{\numberline {5.4}{\ignorespaces Comunicazione da DMA a PS}}{38}
\contentsline {figure}{\numberline {5.5}{\ignorespaces Configurazione standard di AXI DMA per Zynq}}{39}
\contentsline {figure}{\numberline {5.6}{\ignorespaces Loopback canali del DMA}}{40}
\contentsline {figure}{\numberline {5.7}{\ignorespaces Block design}}{40}
\contentsline {figure}{\numberline {5.8}{\ignorespaces Design implementato}}{42}
\contentsline {figure}{\numberline {5.9}{\ignorespaces Routing implementato}}{43}
\addvspace {10\p@ }
\addvspace {10\p@ }
